%YAML 1.1
%TAG !u! tag:unity3d.com,2011:
--- !u!1 &2042741348258700612
GameObject:
  m_ObjectHideFlags: 0
  m_CorrespondingSourceObject: {fileID: 0}
  m_PrefabInstance: {fileID: 0}
  m_PrefabAsset: {fileID: 0}
  serializedVersion: 6
  m_Component:
  - component: {fileID: 2042741348258700610}
  - component: {fileID: 2042741348258700613}
  m_Layer: 0
  m_Name: Choregrapher
  m_TagString: Untagged
  m_Icon: {fileID: 0}
  m_NavMeshLayer: 0
  m_StaticEditorFlags: 0
  m_IsActive: 1
--- !u!4 &2042741348258700610
Transform:
  m_ObjectHideFlags: 0
  m_CorrespondingSourceObject: {fileID: 0}
  m_PrefabInstance: {fileID: 0}
  m_PrefabAsset: {fileID: 0}
  m_GameObject: {fileID: 2042741348258700612}
  m_LocalRotation: {x: 0, y: 0, z: 0, w: 1}
  m_LocalPosition: {x: 0, y: 0, z: 0}
  m_LocalScale: {x: 1, y: 1, z: 1}
  m_Children: []
  m_Father: {fileID: 0}
  m_RootOrder: 0
  m_LocalEulerAnglesHint: {x: 0, y: 0, z: 0}
--- !u!114 &2042741348258700613
MonoBehaviour:
  m_ObjectHideFlags: 0
  m_CorrespondingSourceObject: {fileID: 0}
  m_PrefabInstance: {fileID: 0}
  m_PrefabAsset: {fileID: 0}
  m_GameObject: {fileID: 2042741348258700612}
  m_Enabled: 1
  m_EditorHideFlags: 0
  m_Script: {fileID: 11500000, guid: e2b397e384bb95445b1960eb70c82c90, type: 3}
  m_Name: 
  m_EditorClassIdentifier: 
  firstEnemyIndex: 0
  choregraphy: {fileID: 11400000, guid: 882e9ee1bd7aa904aa6e9b152dcb3aaa, type: 2}
  tabouret: {fileID: 3388609667501045104, guid: 968bcd2fe15fd6447a3989bf956234ea, type: 3}
  bite: {fileID: 3388609667501045104, guid: 88fb60106c2ba754b9c6f3483aa733eb, type: 3}
  couteau: {fileID: 3388609667501045104, guid: 3d6bc0426dc27b441a13c9bc3a523fc9, type: 3}
  boss: {fileID: 3388609667501045104, guid: 20ecc3318c7ff27458e87f663c0b7090, type: 3}
