%YAML 1.1
%TAG !u! tag:unity3d.com,2011:
--- !u!162 &1
EditorUserSettings:
  m_ObjectHideFlags: 0
  serializedVersion: 4
  m_ConfigSettings:
    RecentlyUsedScenePath-0:
      value: 224247031146467a1f0d04231e2c4d5f251411670a2166113f3a183de3ec7b11ecf333fbe6392b352f07cb3909314e1bf707064bc5080f05141db21b01fb110714fa0bc613ce16239d5709c0c409c8
      flags: 0
    RecentlyUsedScenePath-1:
      value: 224247031146467a1f0d04231e2c4d5f251411670a2166113f3a183de3ec7b11ecf333fbe6392b352f07cb3909314e1bf707064bc5080f05141db21b01fb110714fa0bc613ce16239c5709c0c409c8
      flags: 0
    RecentlyUsedScenePath-2:
      value: 224247031146467a1f0d04231e2c4d5f251411670a2166113f3a183de3ec7b11ecf333fbe6392b352f07cb3909314e1bf707064bc5080f05141db21d12f6161a2ec71dc417dd0f52de1715dad4
      flags: 0
    RecentlyUsedScenePath-3:
      value: 224247031146467a1f0d04231e2c4d5f251411670a2166113f3a183de3ec7b11ecf333fbe6392b352f07cb3909314e1bf707064bc5080f05141db21d12f6161a2ec70dc31c860a12c20d05
      flags: 0
    RecentlyUsedScenePath-4:
      value: 224247031146467a1f0d04231e2c4d5f251411670a2166113f3a183de3ec7b11ecf333fbe6392b352f07cb3909314e1bf707064bc5080f05141db21d12f6161a2ec917ca0e860a12c20d05
      flags: 0
    RecentlyUsedScenePath-5:
      value: 224247031146467a1f0d04231e2c4d5f251411670a2166113f3a183de3ec7b11ecf333fbe6392b352f07cb3909314e1bf707064bc5080f05141db21d12f6161a2ec80ddf00c41a1ac7180fc68308dfeac1cf
      flags: 0
    RecentlyUsedScenePath-6:
      value: 224247031146467a1f0d04231e2c4d5f251411670a2166113f3a183de3ec7b11ecf333fbe6392b352f07cb3909314e1bf707064bc5080f05141db21d12f6161a2ec314c417cd0b14d9160bcbdf0e9ff6dbdfc0f3
      flags: 0
    RecentlyUsedScenePath-7:
      value: 224247031146467a1f0d04231e2c4d5f251411670a2166113f3a183de3ec7b11ecf333fbe6392b352f07cb3909314e1bf707064bc5080f05141db21d12f6161a2ecd1ddd1bcf1012d11612cb8308dfeac1cf
      flags: 0
    RecentlyUsedScenePath-8:
      value: 224247031146467a1f0d04231e2c4d5f251411670a2166113f3a183de3ec7b11ecf333fbe6392b352f07cb3909314e1bf707064bc5080f05141db21d12f6161a2ed50aca10cd1c08c21519dd8308dfeac1cf
      flags: 0
    RecentlyUsedScenePath-9:
      value: 22424703114646680e0b0227036c72111f192b292926237e38271427fb
      flags: 0
    vcSharedLogLevel:
      value: 0d5e400f0650
      flags: 0
  m_VCAutomaticAdd: 1
  m_VCDebugCom: 0
  m_VCDebugCmd: 0
  m_VCDebugOut: 0
  m_SemanticMergeMode: 2
  m_VCShowFailedCheckout: 1
  m_VCOverwriteFailedCheckoutAssets: 1
  m_VCProjectOverlayIcons: 1
  m_VCHierarchyOverlayIcons: 1
  m_VCOtherOverlayIcons: 1
  m_VCAllowAsyncUpdate: 1
